module gitlab.com/sue445/create-merge-request

go 1.24

require (
	github.com/cockroachdb/errors v1.11.3
	github.com/go-git/go-git/v5 v5.14.0
	github.com/jarcoal/httpmock v1.3.1
	github.com/sirupsen/logrus v1.9.3
	github.com/stretchr/testify v1.10.0
	github.com/urfave/cli/v2 v2.27.5
	gitlab.com/gitlab-org/api/client-go v0.124.0
	golang.org/x/exp v0.0.0-20240719175910-8a7402abbf56
	golang.org/x/sync v0.11.0
	golang.org/x/tools v0.30.0
)

require (
	dario.cat/mergo v1.0.0 // indirect
	github.com/Microsoft/go-winio v0.6.2 // indirect
	github.com/ProtonMail/go-crypto v1.1.5 // indirect
	github.com/cloudflare/circl v1.6.0 // indirect
	github.com/cockroachdb/logtags v0.0.0-20230118201751-21c54148d20b // indirect
	github.com/cockroachdb/redact v1.1.5 // indirect
	github.com/cpuguy83/go-md2man/v2 v2.0.5 // indirect
	github.com/cyphar/filepath-securejoin v0.4.1 // indirect
	github.com/davecgh/go-spew v1.1.1 // indirect
	github.com/emirpasic/gods v1.18.1 // indirect
	github.com/getsentry/sentry-go v0.27.0 // indirect
	github.com/go-git/gcfg v1.5.1-0.20230307220236-3a3c6141e376 // indirect
	github.com/go-git/go-billy/v5 v5.6.2 // indirect
	github.com/gogo/protobuf v1.3.2 // indirect
	github.com/golang/groupcache v0.0.0-20241129210726-2c02b8208cf8 // indirect
	github.com/google/go-querystring v1.1.0 // indirect
	github.com/hashicorp/go-cleanhttp v0.5.2 // indirect
	github.com/hashicorp/go-retryablehttp v0.7.7 // indirect
	github.com/jbenet/go-context v0.0.0-20150711004518-d14ea06fba99 // indirect
	github.com/kevinburke/ssh_config v1.2.0 // indirect
	github.com/kr/pretty v0.3.1 // indirect
	github.com/kr/text v0.2.0 // indirect
	github.com/pjbgf/sha1cd v0.3.2 // indirect
	github.com/pkg/errors v0.9.1 // indirect
	github.com/pmezard/go-difflib v1.0.0 // indirect
	github.com/rogpeppe/go-internal v1.14.1 // indirect
	github.com/russross/blackfriday/v2 v2.1.0 // indirect
	github.com/sergi/go-diff v1.3.2-0.20230802210424-5b0b94c5c0d3 // indirect
	github.com/skeema/knownhosts v1.3.1 // indirect
	github.com/xanzy/ssh-agent v0.3.3 // indirect
	github.com/xrash/smetrics v0.0.0-20240521201337-686a1a2994c1 // indirect
	golang.org/x/crypto v0.35.0 // indirect
	golang.org/x/mod v0.23.0 // indirect
	golang.org/x/net v0.35.0 // indirect
	golang.org/x/oauth2 v0.25.0 // indirect
	golang.org/x/sys v0.30.0 // indirect
	golang.org/x/text v0.22.0 // indirect
	golang.org/x/time v0.9.0 // indirect
	gopkg.in/warnings.v0 v0.1.2 // indirect
	gopkg.in/yaml.v3 v3.0.1 // indirect
)
