[
  {
    "id": 1,
    "username": "john_smith",
    "name": "John Smith",
    "state": "active",
    "locked": false,
    "avatar_url": "http://localhost:3000/uploads/user/avatar/1/cd8.jpeg",
    "web_url": "http://localhost:3000/john_smith"
  }
]
